BKM Assignment
…
Analysing the Data

1) Total Transaction Amounts and Shares of Sectors between 2017-2019

isyeri_grubu_total<-combined_BKM_data %>% group_by(Isyeri_Grubu) %>% summarise(Total_Islem_Adedi_Kredi_Karti=sum(Islem_Adedi_Kredi_Karti), Total_Islem_Tutari_Kredi_Karti=sum(Islem_Tutari_Kredi_Karti),Total_Islem_Adedi_Banka_Karti=sum(Islem_Adedi_Banka_Karti), Total_Islem_Tutari_Banka_Karti = sum(Islem_Tutari_Banka_Karti),Total_Islem = Total_Islem_Adedi_Banka_Karti + Total_Islem_Adedi_Kredi_Karti,Total_Tutar=Total_Islem_Tutari_Banka_Karti+Total_Islem_Tutari_Kredi_Karti) %>% ungroup() %>% mutate(Total_Islem_Share= percent(Total_Islem/sum(Total_Islem)),Total_Tutar_Share=percent(Total_Tutar/sum(Total_Tutar)))

isyeri_grubu_total %>% select (Isyeri_Grubu ,Total_Tutar,Total_Tutar_Share) %>% arrange(desc(Total_Tutar))

## # A tibble: 26 x 3
##    Isyeri_Grubu                          Total_Tutar Total_Tutar_Share
##    <chr>                                       <dbl> <chr>            
##  1 MARKET VE ALISVERIS MERKEZLERI            360422. 18.0%            
##  2 BENZIN VE YAKIT ISTASYONLARI              179316. 9.0%             
##  3 GIYIM VE AKSESUAR                         163796. 8.2%             
##  4 ÇESITLI GIDA                              137309. 6.9%             
##  5 HIZMET SEKTÖRLERI                         120958. 6.0%             
##  6 ELEKTRIK-ELEKTRONIK ESYA, BILGISAYAR      106834. 5.3%             
##  7 YEMEK                                      87569. 4.4%             
##  8 SIGORTA                                    82711. 4.1%             
##  9 YAPI MALZEMELERI, HIRDAVAT, NALBURIYE      78196. 3.9%             
## 10 SAGLIK/SAGLIK ÜRÜNLERI/KOZMETIK            76140. 3.8%             
## # ... with 16 more rows
…
