BKM Assignment
…
player_ids=c(rank_df[[2]][[1]],rank_df[[2]][[2]],rank_df[[2]][[3]],rank_df[[2]][[4]],rank_df[[2]][[5]])

df8 <- joined %>% filter(player_id==player_ids[1] | player_id==player_ids[2] | player_id==player_ids[3] | player_id==player_ids[4] | player_id==player_ids[5])%>% arrange(week_title)
df8

## # A tibble: 210 x 19
##    week_title player_id rank_number ranking_points tourneys_played
##    <date>     <chr>           <dbl>          <dbl>           <dbl>
##  1 2017-01-02 tb69                8           3415              28
##  2 2017-01-02 n409                9           3300              16
##  3 2017-01-02 f324               16           2130              15
##  4 2017-01-02 d875               17           2035              25
##  5 2017-01-02 z355               24           1655              24
##  6 2017-01-09 tb69                8           3415              28
##  7 2017-01-09 n409                9           3195              16
##  8 2017-01-09 d875               15           2195              25
##  9 2017-01-09 f324               17           1980              14
## 10 2017-01-09 z355               24           1655              24
## # ... with 200 more rows, and 14 more variables: player_age <dbl>,
## #   player_slug <chr>, first_name <chr>, last_name <chr>, flag_code <chr>,
## #   residence <chr>, birth_place <chr>, birth_date <date>,
## #   turned_pro <dbl>, weight_kg <dbl>, height_cm <dbl>, handedness <chr>,
## #   backhand <chr>, Points_Per_Tourney <dbl>
…
